<svg width="49" height="48" viewBox="0 0 49 48" fill="none" xmlns="http://www.w3.org/2000/svg">
<g clip-path="url(#clip0_124_512)">
<path d="M31.6865 8.91357H39.5292V16.7563" stroke="#7759C2" stroke-width="1.27982" stroke-linecap="round" stroke-linejoin="round"/>
<path d="M17.7402 39.0624H9.35938V31.2192" stroke="#7759C2" stroke-width="1.27982" stroke-linecap="round" stroke-linejoin="round"/>
<path d="M5.2998 20.957C7.38589 22.8119 10.0803 23.8366 12.8718 23.8366C15.6633 23.8366 18.3577 22.8119 20.4438 20.957C18.3577 19.1021 15.6633 18.0774 12.8718 18.0774C10.0803 18.0774 7.38589 19.1021 5.2998 20.957V20.957Z" stroke="#7759C2" stroke-width="1.27982" stroke-linecap="round" stroke-linejoin="round"/>
<path d="M12.8713 14.8787C14.887 14.8787 16.521 13.2447 16.521 11.229C16.521 9.21335 14.887 7.57935 12.8713 7.57935C10.8557 7.57935 9.22168 9.21335 9.22168 11.229C9.22168 13.2447 10.8557 14.8787 12.8713 14.8787Z" stroke="#7759C2" stroke-width="1.27982" stroke-linecap="round" stroke-linejoin="round"/>
<path d="M22.6548 18.2785C23.5552 16.7707 24.0952 15.0752 24.2326 13.3243C24.3701 11.5735 24.1013 9.81452 23.4473 8.18459C22.7933 6.55466 21.7717 5.0978 20.4621 3.92756C19.1526 2.75732 17.5905 1.90534 15.8975 1.43802C14.2046 0.970699 12.4266 0.900672 10.7022 1.2334C8.97771 1.56612 7.35341 2.29261 5.95587 3.35622C4.55832 4.41984 3.4253 5.79184 2.64512 7.36529C1.86494 8.93873 1.45868 10.6711 1.45802 12.4273C1.45508 14.4879 2.01257 16.5105 3.07082 18.2785" stroke="#7759C2" stroke-width="1.27982" stroke-linecap="round" stroke-linejoin="round"/>
<path d="M28.5605 44.0593C30.6466 45.9142 33.341 46.9389 36.1325 46.9389C38.9241 46.9389 41.6185 45.9142 43.7045 44.0593C41.617 42.2073 38.9232 41.1846 36.1325 41.1846C33.3419 41.1846 30.6481 42.2073 28.5605 44.0593V44.0593Z" stroke="#7759C2" stroke-width="1.27982" stroke-linecap="round" stroke-linejoin="round"/>
<path d="M36.1389 37.981C38.1546 37.981 39.7886 36.347 39.7886 34.3313C39.7886 32.3157 38.1546 30.6816 36.1389 30.6816C34.1233 30.6816 32.4893 32.3157 32.4893 34.3313C32.4893 36.347 34.1233 37.981 36.1389 37.981Z" stroke="#7759C2" stroke-width="1.27982" stroke-linecap="round" stroke-linejoin="round"/>
<path d="M45.9253 41.3857C46.9589 39.6547 47.5152 37.6805 47.5374 35.6645C47.5596 33.6485 47.047 31.6626 46.0518 29.9091C45.0566 28.1557 43.6143 26.6975 41.872 25.683C40.1296 24.6685 38.1495 24.134 36.1333 24.134C34.1171 24.134 32.137 24.6685 30.3947 25.683C28.6523 26.6975 27.2101 28.1557 26.2148 29.9091C25.2196 31.6626 24.707 33.6485 24.7292 35.6645C24.7514 37.6805 25.3077 39.6547 26.3413 41.3857" stroke="#7759C2" stroke-width="1.27982" stroke-linecap="round" stroke-linejoin="round"/>
</g>
<defs>
<clipPath id="clip0_124_512">
<rect width="48" height="48" fill="white" transform="translate(0.5)"/>
</clipPath>
</defs>
</svg>
