<svg width="32" height="33" viewBox="0 0 32 33" fill="none" xmlns="http://www.w3.org/2000/svg">
<g clip-path="url(#clip0_397_798)">
<path fill-rule="evenodd" clip-rule="evenodd" d="M10.3334 6.72742L25.5334 21.9274L1.60005 31.4607L0.800049 30.6607L10.3334 6.72742Z" stroke="#171321" stroke-miterlimit="10"/>
<path d="M16.28 0.740753C20.84 5.14075 16.9734 8.87409 16.9734 8.87409" stroke="#171321" stroke-miterlimit="10"/>
<path d="M23.9867 15.8741C23.9867 15.8741 27.6667 12.1808 31.52 16.1408" stroke="#171321" stroke-miterlimit="10"/>
<path d="M25.5333 8.87408L26.24 8.16742C27.16 7.24742 28.4133 6.72742 29.7067 6.72742H30.6267" stroke="#171321" stroke-miterlimit="10"/>
<path d="M5.53333 18.4741L7.93332 28.7408" stroke="#171321" stroke-miterlimit="10"/>
<path d="M13.2134 9.5274L16.12 23.6074" stroke="#171321" stroke-miterlimit="10"/>
</g>
<defs>
<clipPath id="clip0_397_798">
<rect width="32" height="32" fill="white" transform="translate(0 0.260742)"/>
</clipPath>
</defs>
</svg>
