<svg width="25" height="24" viewBox="0 0 25 24" fill="none" xmlns="http://www.w3.org/2000/svg">
<path d="M19.2785 10.4712V6.77278C19.2785 5.10382 18.6155 3.50323 17.4353 2.3231C16.2552 1.14297 14.6546 0.47998 12.9857 0.47998V0.47998C11.3167 0.47998 9.71612 1.14297 8.53599 2.3231C7.35586 3.50323 6.69287 5.10382 6.69287 6.77278V10.4712" stroke="#A989F5" stroke-width="0.75" stroke-linecap="round" stroke-linejoin="round"/>
<path d="M21.9769 23.5199H3.99609V12.3911" stroke="#A989F5" stroke-width="0.75" stroke-linecap="round" stroke-linejoin="round"/>
<path d="M3.99609 10.4712H21.9769V21.5976" stroke="#A989F5" stroke-width="0.75" stroke-linecap="round" stroke-linejoin="round"/>
<path d="M14.5779 16.6152C14.5786 16.3374 14.5065 16.0644 14.3689 15.8231C14.2313 15.5818 14.0329 15.3808 13.7935 15.2399C13.5541 15.0991 13.282 15.0234 13.0042 15.0204C12.7265 15.0173 12.4528 15.087 12.2103 15.2225C11.9679 15.358 11.7651 15.5547 11.6222 15.7928C11.4793 16.031 11.4013 16.3025 11.3958 16.5802C11.3904 16.8579 11.4577 17.1322 11.5911 17.3758C11.7245 17.6194 11.9194 17.8238 12.1563 17.9688V19.6488C12.1554 19.7584 12.1761 19.8672 12.2174 19.9688C12.2587 20.0704 12.3198 20.1628 12.397 20.2406C12.4742 20.3185 12.566 20.3803 12.6673 20.4225C12.7685 20.4647 12.877 20.4864 12.9867 20.4864V20.4864C13.2069 20.4864 13.4182 20.3989 13.5739 20.2432C13.7296 20.0874 13.8171 19.8762 13.8171 19.656V17.976C14.0503 17.8339 14.2429 17.6339 14.3762 17.3955C14.5095 17.1571 14.579 16.8883 14.5779 16.6152V16.6152Z" stroke="#A989F5" stroke-width="0.75" stroke-linecap="round" stroke-linejoin="round"/>
</svg>
