<svg width="73" height="34" viewBox="0 0 73 34" fill="none" xmlns="http://www.w3.org/2000/svg">
<g clip-path="url(#clip0_126_12070)">
<path d="M56.5819 9.25228C55.4956 8.96979 54.3473 9.0432 53.3058 9.46173C52.2643 9.88026 51.3846 10.6218 50.7958 11.5774C50.2164 12.5382 49.9627 13.6603 50.0723 14.7769C50.1819 15.8934 50.6491 16.9447 51.4043 17.7744C52.1595 18.6041 53.1624 19.1678 54.2638 19.3817C55.3651 19.5955 56.5061 19.4481 57.5169 18.9614C57.7247 18.8646 57.9003 18.6497 58.1726 18.7428C58.2299 19.857 58.083 20.4697 57.6065 21.0931C56.306 22.7948 53.9056 22.6193 52.6839 20.7312C52.2038 19.9896 51.6569 19.789 51.043 20.1293C50.3946 20.4912 50.2727 21.1289 50.7206 21.9063C51.3401 22.9921 52.3275 23.8206 53.5043 24.2422C53.7157 24.3211 53.687 24.3211 54.0095 24.4429C54.3785 24.5862 55.5142 24.622 56.0409 24.5253C56.2684 24.478 56.4923 24.4145 56.7108 24.3354C57.7777 24.0301 58.7196 23.3928 59.3999 22.5161C60.0802 21.6393 60.4634 20.5686 60.4942 19.4593C60.5336 17.6716 60.5407 15.8838 60.4906 14.0961C60.4495 12.9749 60.0465 11.8971 59.342 11.024C58.6374 10.1509 57.6691 9.52931 56.5819 9.25228H56.5819ZM52.3185 14.286C52.3117 13.7044 52.4776 13.134 52.7952 12.6467C53.1128 12.1595 53.5677 11.7774 54.1025 11.5488C54.6372 11.3202 55.2278 11.2554 55.7994 11.3625C56.371 11.4696 56.898 11.7439 57.3137 12.1506C57.7295 12.5573 58.0152 13.0781 58.1348 13.6473C58.2545 14.2164 58.2026 14.8082 57.9858 15.3479C57.769 15.8875 57.397 16.3507 56.9169 16.6789C56.4367 17.0071 55.87 17.1855 55.2885 17.1915C54.9025 17.1963 54.5194 17.1249 54.1611 16.9814C53.8028 16.8379 53.4764 16.6251 53.2005 16.3551C52.9246 16.0852 52.7046 15.7635 52.5533 15.4084C52.4019 15.0534 52.3221 14.6719 52.3185 14.286H52.3185Z" fill="black"/>
<path d="M71.6255 12.7418C70.8373 10.3056 68.4118 8.75787 65.929 9.1233C65.0156 9.25275 64.153 9.62253 63.4294 10.1948C62.7059 10.7671 62.1473 11.5213 61.8109 12.3803C61.4745 13.2393 61.3724 14.1723 61.5149 15.0837C61.6575 15.9951 62.0396 16.8524 62.6222 17.5676C63.2048 18.2829 63.967 18.8306 64.8307 19.1546C65.6945 19.4786 66.6288 19.5674 67.5381 19.4117C68.4474 19.2561 69.299 18.8617 70.0059 18.2689C70.7127 17.6761 71.2494 16.9062 71.561 16.0379C71.7123 15.6809 71.8194 15.3067 71.8798 14.9237C71.9261 14.4179 71.9045 13.9082 71.8153 13.4082C71.7633 13.183 71.6999 12.9606 71.6255 12.7418V12.7418ZM66.6061 17.1915C66.0336 17.18 65.4773 16.9997 65.0069 16.6733C64.5365 16.3469 64.1728 15.8889 63.9617 15.3567C63.7505 14.8245 63.7011 14.2418 63.8197 13.6816C63.9383 13.1215 64.2197 12.6088 64.6285 12.2079C65.0373 11.807 65.5554 11.5357 66.1177 11.428C66.6801 11.3204 67.2617 11.3811 67.7897 11.6026C68.3177 11.8242 68.7685 12.1966 69.0857 12.6733C69.4029 13.1501 69.5722 13.7098 69.5726 14.2824C69.5697 14.6684 69.4905 15.0501 69.3397 15.4055C69.1889 15.7609 68.9694 16.083 68.6938 16.3533C68.4181 16.6236 68.0918 16.8368 67.7336 16.9806C67.3753 17.1245 66.9921 17.1961 66.6061 17.1915V17.1915Z" fill="black"/>
<path d="M42.9461 13.1717C42.8011 12.4691 42.5093 11.805 42.0899 11.223C41.6705 10.6409 41.1329 10.1541 40.5122 9.79418C39.8916 9.43432 39.2019 9.2096 38.4884 9.13473C37.7749 9.05987 37.0537 9.13655 36.3718 9.35976C35.6796 9.57001 35.0388 9.92223 34.4903 10.394C33.9418 10.8657 33.4976 11.4466 33.1862 12.0995C32.8747 12.7525 32.7027 13.4632 32.6812 14.1863C32.6598 14.9095 32.7893 15.6291 33.0614 16.2994C34.1828 19.0294 37.5792 20.2798 40.2555 18.9434C40.5708 18.7858 40.8072 18.5565 41.1117 19.0294C41.2399 19.2311 41.4382 19.3783 41.6684 19.4424C41.8987 19.5066 42.1445 19.4833 42.3585 19.3769C42.5806 19.2976 42.7702 19.1471 42.8979 18.9488C43.0255 18.7506 43.084 18.5156 43.0643 18.2806C43.0607 17.539 43.0643 16.7974 43.0643 15.8659C43.0177 15.0921 43.161 14.1211 42.9461 13.1717ZM37.8837 17.1915C36.2142 17.17 34.9029 15.8695 34.9495 14.2824C34.9865 13.5077 35.3185 12.7766 35.8775 12.239C36.4364 11.7014 37.1799 11.398 37.9554 11.3911C38.3402 11.3985 38.7197 11.4824 39.0719 11.6378C39.424 11.7933 39.7416 12.0172 40.0064 12.2966C40.2711 12.576 40.4776 12.9053 40.6139 13.2653C40.7501 13.6253 40.8134 14.0088 40.8 14.3934C40.7821 16.0236 39.5425 17.213 37.8837 17.1915Z" fill="black"/>
<path d="M50.3765 10.1444C50.3192 9.39558 49.6886 9.01224 48.7105 9.11972C47.5818 9.23241 46.5204 9.70934 45.6867 10.4785C44.8529 11.2476 44.2921 12.2671 44.0889 13.3831C43.9169 14.2788 44.0495 15.1924 44.0101 15.9447C44.0101 16.7544 44.0065 17.4136 44.0101 18.0729C44.0172 18.9793 44.4185 19.4809 45.135 19.488C45.8516 19.4988 46.2886 18.99 46.2994 18.0979C46.3101 16.8368 46.2886 15.5721 46.3066 14.311C46.3281 12.7347 47.4208 11.4807 48.9792 11.4162C49.9036 11.3768 50.4231 10.7642 50.3765 10.1444Z" fill="#010101"/>
<path d="M11.7975 26.8741C11.8002 26.8741 11.803 26.8825 11.803 26.8991C11.8058 27.016 11.8086 27.13 11.8114 27.2468C11.8281 27.1578 11.8447 27.0688 11.8642 26.977C11.8503 26.8073 11.7168 26.8936 11.7975 26.8741Z" fill="#FEFEFE"/>
<path d="M19.0959 17.3609C19.0932 17.3636 19.0879 17.3636 19.0852 17.3663C19.0879 17.3689 19.0932 17.3716 19.0959 17.3743C19.0932 17.3716 19.0959 17.3663 19.0959 17.3609Z" fill="#FEFEFE"/>
<path d="M14.4983 5.68367V5.6863H14.5063C14.5036 5.6863 14.501 5.68367 14.4983 5.68367Z" fill="#FEFEFE"/>
<path d="M18.4066 29.1356C18.4427 28.7322 18.4232 28.3233 18.4733 27.9228C18.5846 27.041 18.4789 26.1397 18.7098 25.2691C18.8238 24.8185 18.4594 24.29 18.9267 23.895L18.8099 23.5111C18.7606 23.4112 18.7362 23.3009 18.7386 23.1895C18.741 23.0782 18.7703 22.969 18.8238 22.8713C18.7964 22.0981 18.8429 21.3241 18.9629 20.5598C19.0046 19.4972 19.0491 18.4346 19.0908 17.3693C19.0881 17.3665 19.0825 17.3637 19.0797 17.3609C16.8071 18.404 14.6653 16.9437 14.3009 15.1913C14.0617 14.0397 14.1896 12.9521 15.0881 12.0731C15.2383 11.9256 15.3662 11.756 15.5053 11.5946C15.8725 9.39436 15.6166 7.3749 13.7362 5.8005C14.0172 5.63916 14.2703 5.73096 14.4984 5.68924V5.6865C12.1924 5.10792 9.39409 6.6851 8.46781 9.09399C8.17976 9.80583 8.04973 10.5717 8.08673 11.3388C10.3732 10.279 12.4233 11.5446 12.988 13.4723C13.5749 15.4778 12.0116 17.6002 9.93373 17.6308C9.33875 17.6337 8.74684 17.5455 8.17853 17.3693C8.22026 18.4764 8.26291 19.5835 8.30649 20.6906C8.40837 21.4128 8.45209 22.1421 8.43722 22.8714C8.44279 23.0438 8.44835 23.2163 8.45391 23.3888C8.44835 23.5028 8.44279 23.6169 8.43722 23.7337C8.58187 24.4328 8.66839 25.1427 8.69591 25.8561C8.69087 25.8378 8.68715 25.8192 8.68479 25.8004C8.68756 25.8199 8.69313 25.8366 8.69591 25.8561C8.75154 27.0661 8.78492 28.2789 8.87115 29.4889C8.90732 29.9896 8.72651 30.2399 8.26475 30.3679C7.71955 30.5209 7.1827 30.7044 6.64307 30.8769C7.35514 30.9664 8.0733 30.9981 8.79048 30.9715C9.56099 30.9548 9.91148 30.6126 9.98658 29.8477C10.0339 29.3609 10.0756 28.8741 10.1201 28.3873C10.1702 27.5056 10.2202 26.621 10.2703 25.7392H10.3788V28.2566C10.3927 28.6377 10.3983 29.0216 10.4233 29.4026C10.5346 31.1801 10.5874 31.169 8.81551 31.5278C8.77494 31.5404 8.73579 31.5572 8.69868 31.5779C8.80438 31.6474 8.91008 31.7169 9.01578 31.7893C9.03184 31.7919 9.04712 31.7979 9.06058 31.8071C9.07403 31.8162 9.08533 31.8282 9.09367 31.8421C9.51647 31.8449 9.94207 31.8811 10.3593 31.8421C11.1187 31.7698 11.4775 31.3637 11.5332 30.6099C11.5665 30.1259 11.6166 29.6419 11.6583 29.1579C11.6151 28.5188 11.6657 27.8768 11.8085 27.2524C11.8058 27.1356 11.803 27.0216 11.8002 26.9047C11.8002 26.8881 11.7946 26.8769 11.7946 26.8797C11.714 26.8992 11.8475 26.813 11.8614 26.9826C11.8753 26.9075 11.892 26.8324 11.9059 26.7573V29.6725C11.9142 30.0146 11.9254 30.354 11.9309 30.6961C11.9448 31.9339 11.8669 32.0452 10.6875 32.3985C10.3621 32.4958 10.0227 32.5542 9.70006 32.6627C9.4664 32.7434 9.16877 32.6989 8.94902 32.9742C9.90868 32.9381 10.8071 33.0466 11.7 32.9019C12.6235 32.7517 12.9907 32.379 13.1799 31.4777C13.319 30.8157 13.3774 30.1342 13.6305 29.4638C13.6592 29.5096 13.6834 29.5581 13.7028 29.6085C13.8308 30.2343 13.9587 30.863 14.0811 31.4889C14.2536 32.3651 14.6096 32.7378 15.4997 32.8936C16.4205 33.0521 17.3523 32.9436 18.3064 32.9659C18.1701 32.7322 17.9559 32.7712 17.7835 32.7211C17.191 32.5487 16.5874 32.4012 16.006 32.2009C15.5832 32.0535 15.28 31.7837 15.2856 31.2635C15.2995 29.8394 15.2911 28.4152 15.2911 26.991H15.4636C15.5248 27.8839 15.5971 28.774 15.6444 29.6669C15.7529 31.7309 15.9977 31.9562 18.07 31.8421C18.1868 31.6474 18.4733 31.8004 18.5818 31.5918C18.0839 31.589 17.6499 31.3498 17.1938 31.1968C17.0707 31.1544 16.9652 31.0725 16.8937 30.9638C16.8223 30.855 16.7889 30.7257 16.7988 30.596C16.821 29.1328 16.7654 27.6641 16.9629 26.2065C17.0825 27.4305 17.1771 28.6572 17.2716 29.8811C17.3161 30.4541 17.5748 30.9019 18.1757 30.9409C18.9879 30.9965 19.8029 30.9548 20.6179 30.9548C20.1941 30.7581 19.755 30.5962 19.305 30.4708C18.3092 30.1509 18.3147 30.1481 18.4065 29.1356L18.4066 29.1356ZM12.1423 8.26502C12.1405 8.4607 12.062 8.64786 11.9236 8.78623C11.7853 8.9246 11.5981 9.00313 11.4024 9.00493C10.9657 9.01328 10.6375 8.76293 10.6291 8.19548C10.631 8.09812 10.6527 8.00215 10.6927 7.9134C10.7328 7.82465 10.7905 7.74495 10.8623 7.67915C10.934 7.61335 11.0184 7.56281 11.1103 7.53059C11.2022 7.49837 11.2997 7.48515 11.3969 7.49173C11.917 7.48339 12.1507 7.83387 12.1423 8.26502ZM15.4859 20.4318C15.4886 21.5584 14.6263 22.5403 13.6416 22.5375C12.7126 22.5348 11.764 21.4388 11.7974 20.404C11.7474 20.0981 11.6945 19.7893 11.625 19.3609C12.2898 19.8143 12.8489 20.2789 13.5971 20.2955C14.3621 20.3095 14.9629 19.9172 15.5888 19.4583C15.7223 19.8255 15.3857 20.112 15.4859 20.4318H15.4859Z" fill="#FE733E"/>
<path d="M8.43996 22.8686C8.38432 22.8491 8.33147 22.824 8.27862 22.8046C7.53293 22.4787 6.84595 22.0323 6.24525 21.4833C4.03665 19.5751 2.57907 17.1857 2.22581 14.2872C1.82525 10.9938 2.56238 7.95348 4.75987 5.34153C6.76542 2.96046 9.32173 1.57243 12.3732 1.25255C15.764 0.89928 18.8099 1.84781 21.3745 4.18995C23.4683 6.04877 24.7909 8.62363 25.0824 11.4083C25.3829 13.7985 24.8873 16.221 23.6721 18.3011C22.54 20.2344 21.0324 21.8032 18.9934 22.7962C18.9378 22.8241 18.8822 22.8519 18.8265 22.8769C18.7723 22.9744 18.7427 23.0836 18.7403 23.1951C18.7379 23.3066 18.7627 23.417 18.8126 23.5167V23.5167C18.8562 23.4698 18.9047 23.4279 18.9573 23.3915C22.0365 21.7615 24.1728 19.3387 25.1714 15.9673C25.2577 15.6808 25.3912 15.539 25.7111 15.5723C26.145 15.6169 26.2618 15.3276 26.2618 14.9659C26.2646 13.5779 26.2655 12.1908 26.2646 10.8046C26.2646 10.507 26.1922 10.1788 25.8835 10.1454C25.316 10.0786 25.2465 9.66417 25.1324 9.26084C24.5047 6.96181 23.1503 4.92739 21.2716 3.46116C17.3495 0.381898 13.0435 -0.174426 8.52615 1.90623C5.16873 3.45003 3.02966 6.12874 2.06165 9.71425C2.00045 9.93678 2.02827 10.201 1.64997 10.1232C1.11034 10.0119 0.907278 10.329 0.904496 10.8074C0.896152 12.1955 0.901724 13.5807 0.901724 14.9687C0.901724 15.4305 1.13538 15.6753 1.58044 15.5668C1.98934 15.4667 2.0867 15.6697 2.17015 15.9813C2.53176 17.3 3.13647 18.5396 3.95317 19.6363C5.14927 21.258 6.60684 22.5598 8.4594 23.3887C8.45383 23.2163 8.44827 23.041 8.43993 22.8686L8.43996 22.8686Z" fill="#B5D2F3"/>
<path d="M8.44266 23.7309C8.03098 24.8852 6.93502 24.8574 6.00317 25.1467C6.70414 25.3275 7.41624 25.5361 8.11721 25.4165C8.53445 25.3442 8.61512 25.4944 8.67632 25.742C8.68188 25.7615 8.68466 25.7809 8.69022 25.8004C8.693 25.8171 8.69857 25.8366 8.70135 25.856C8.67383 25.1417 8.5873 24.4309 8.44266 23.7309V23.7309Z" fill="#FE684B"/>
<path d="M18.7096 25.2719C19.5998 25.6752 20.4398 25.2691 21.2993 25.1523C20.4593 24.7962 19.3717 24.9798 18.9294 23.8978C18.4593 24.2927 18.8237 24.8213 18.7096 25.2719Z" fill="#FE6446"/>
<path d="M11.9088 26.7517C11.8949 26.8268 11.8782 26.9019 11.8643 26.977C11.8476 27.066 11.8281 27.155 11.8114 27.2468C11.6686 27.8712 11.618 28.5132 11.6612 29.1522C11.8698 29.2607 11.7168 29.5472 11.9088 29.6641L11.9088 26.7517Z" fill="#FED6C8"/>
<path d="M10.2759 25.7336C10.2259 26.6154 10.1758 27.5 10.1257 28.3817C10.212 28.3372 10.2982 28.2955 10.3844 28.251V25.7336H10.2759Z" fill="#FEEBE3"/>
<path d="M7.66113 31.8365H9.09645C9.07141 31.8198 9.0436 31.8031 9.01856 31.7837C8.91286 31.7141 8.80716 31.6446 8.70146 31.5723C8.33712 31.5642 7.97747 31.6556 7.66113 31.8365V31.8365Z" fill="#FE9166"/>
<path d="M18.0698 31.8365H19.4662C19.2107 31.6502 18.8969 31.5614 18.5816 31.5862C18.4732 31.7976 18.1839 31.6418 18.0698 31.8365Z" fill="#FE8F64"/>
<path d="M18.9962 22.7934C21.0351 21.8032 22.54 20.2344 23.6749 18.2983C24.89 16.2183 25.3857 13.7957 25.0852 11.4055C24.7961 8.62012 23.473 6.04442 21.3773 4.18716C18.8126 1.84781 15.7667 0.896499 12.3759 1.25254C9.32726 1.56965 6.76815 2.96046 4.7626 5.34153C2.56234 7.95348 1.82799 10.9938 2.22855 14.2872C2.58181 17.1885 4.03938 19.5751 6.24799 21.4833C6.84891 22.032 7.53583 22.4784 8.28136 22.8046C8.33421 22.8268 8.38706 22.8491 8.4427 22.8685C8.45756 22.1393 8.41384 21.41 8.31196 20.6877C8.25632 20.6488 8.20069 20.6099 8.14506 20.5681C7.59488 20.1426 7.08127 19.6718 6.60961 19.1606C6.46218 19.0104 6.27859 18.8825 6.27859 18.6377C5.95036 18.8741 5.71392 18.71 5.52199 18.4485C4.44465 17.0351 3.81756 15.3303 3.72228 13.5557C3.6444 11.9479 3.78904 10.3846 4.46498 8.87975C5.29071 7.02092 6.6727 5.464 8.42044 4.42359C8.72086 4.24 8.89332 4.40412 9.10194 4.54042C9.20093 4.53653 9.29797 4.51171 9.38666 4.4676C9.47536 4.42349 9.55371 4.36109 9.61654 4.2845L9.59151 4.22609C9.41349 3.85057 9.40514 3.42498 9.83351 3.32485C10.2647 3.22192 10.5094 3.57241 10.5122 4.02581C13.7306 2.9688 16.7236 3.39717 19.4246 5.45835C21.444 6.99937 22.6012 9.06612 22.9544 11.5863C23.4106 14.8269 22.3147 17.5139 20.056 19.7865C19.7894 20.0599 19.4838 20.2924 19.1492 20.4763C19.0908 20.5069 19.0324 20.5348 18.9739 20.5626C18.854 21.3269 18.8074 22.1009 18.8349 22.8741V22.8741C18.8849 22.8491 18.9378 22.8213 18.9962 22.7934Z" fill="#E2F5FC"/>
<path d="M20.0504 19.7893C22.3063 17.5167 23.4022 14.8297 22.9488 11.5891C22.5956 9.06612 21.4384 6.99938 19.4189 5.46114C16.718 3.39995 13.7222 2.97437 10.5066 4.0286C10.5011 4.03134 10.4955 4.03695 10.4899 4.03972C10.2368 4.20105 10.0393 4.54876 9.67491 4.33179C9.65266 4.31787 9.63318 4.30675 9.61093 4.29006C9.5483 4.36688 9.47 4.42944 9.38126 4.47357C9.29251 4.5177 9.19538 4.54238 9.09633 4.54597C9.08799 4.57935 9.07686 4.60995 9.06573 4.64333C8.83485 5.29144 8.14223 5.46113 7.6777 5.85055C6.4319 6.86139 5.48316 8.19079 4.93224 9.69754C4.04768 12.1621 4.22849 14.5765 5.41346 16.9075C5.61019 17.2856 5.83815 17.6466 6.09496 17.9868C6.23494 18.1721 6.29864 18.404 6.27298 18.6349V18.6432C6.27298 18.8852 6.45657 19.016 6.60399 19.1662C7.07632 19.6767 7.58988 20.1474 8.13945 20.5737C8.19508 20.6126 8.25071 20.6544 8.30635 20.6933C8.26462 19.5862 8.22197 18.4791 8.17839 17.372C8.17562 17.372 8.17562 17.3693 8.17283 17.3693C7.21039 16.7378 6.50385 15.9312 6.38146 14.7295C6.22847 13.2469 6.85156 12.1509 8.06435 11.3526C8.06991 11.3498 8.07547 11.3443 8.08104 11.3415C8.04357 10.5744 8.17361 9.80843 8.46212 9.09672C9.3884 6.69061 12.1867 5.11065 14.4927 5.68923C14.4942 5.68904 14.4957 5.68919 14.4972 5.68967C14.4986 5.69014 14.4999 5.69093 14.501 5.69197C16.0309 5.93953 17.2882 6.63772 18.1895 7.92005C18.9166 8.90717 19.2758 10.1175 19.2048 11.3414V11.3414C20.0726 12.0007 20.7736 12.774 20.8876 13.9172C21.0406 15.4555 20.3842 16.5792 19.0907 17.3637V17.3776C19.049 18.4402 19.0045 19.5027 18.9628 20.5681C19.024 20.5403 19.0824 20.5125 19.138 20.4819C19.476 20.2994 19.7837 20.0657 20.0504 19.7892L20.0504 19.7893Z" fill="#CDECF6"/>
<path d="M16.3036 11.2163C17.2577 10.7462 18.184 10.9994 19.1047 11.3025C19.1381 11.3137 19.1743 11.3248 19.2076 11.3359C19.2795 10.1119 18.9202 8.90129 18.1923 7.91453C17.2911 6.6322 16.0338 5.93401 14.5039 5.68645H14.4956C14.2675 5.73096 14.0143 5.63638 13.7334 5.79771C15.6138 7.37211 15.8725 9.39157 15.5025 11.5918C15.5609 11.564 15.6166 11.539 15.675 11.5112C15.8892 11.4138 16.0978 11.3192 16.3036 11.2163Z" fill="#FE6B3C"/>
<path d="M20.8934 13.9145C20.7793 12.7713 20.0784 11.998 19.2105 11.3387C19.1771 11.3276 19.141 11.3165 19.1076 11.3053C18.1841 11.0021 17.2606 10.749 16.3065 11.2191C16.1007 11.322 15.8893 11.4194 15.6806 11.5167C15.6222 11.5446 15.5666 11.5696 15.5082 11.5974C15.3691 11.756 15.2411 11.9284 15.0909 12.0759C14.1897 12.9549 14.0645 14.0425 14.3037 15.1941C14.6681 16.9493 16.81 18.4096 19.0853 17.3693C19.0881 17.3665 19.0937 17.3665 19.0965 17.3637C20.3899 16.5765 21.0492 15.45 20.8934 13.9145ZM17.4915 16.9882C16.9696 16.9827 16.461 16.8224 16.0302 16.5277C15.5995 16.233 15.2658 15.8171 15.0716 15.3326C14.8773 14.8482 14.8312 14.317 14.9391 13.8063C15.0469 13.2956 15.3038 12.8284 15.6774 12.4639C16.0509 12.0993 16.5242 11.8538 17.0373 11.7584C17.5505 11.663 18.0804 11.722 18.56 11.928C19.0396 12.134 19.4473 12.4776 19.7314 12.9154C20.0156 13.3532 20.1634 13.8655 20.1563 14.3874C20.1585 14.735 20.0906 15.0794 19.9566 15.4002C19.8227 15.7209 19.6254 16.0114 19.3767 16.2542C19.1279 16.497 18.8327 16.6871 18.5088 16.8132C18.1849 16.9393 17.8389 16.9988 17.4915 16.9882Z" fill="#FE6142"/>
<path d="M8.06726 11.3471C6.85446 12.1454 6.23139 13.2414 6.38437 14.724C6.50677 15.9256 7.2133 16.7323 8.17574 17.3637C8.17851 17.3637 8.17851 17.3665 8.1813 17.3665C8.74956 17.5429 9.34151 17.631 9.9365 17.628C12.0116 17.5974 13.5776 15.4778 12.9907 13.4694C12.4261 11.5418 10.3732 10.2761 8.0895 11.3359C8.08156 11.3385 8.07405 11.3422 8.06725 11.3471L8.06726 11.3471ZM9.72511 16.9882C9.37592 16.9927 9.02928 16.9282 8.70512 16.7983C8.38096 16.6684 8.08568 16.4758 7.83624 16.2313C7.58681 15.9869 7.38815 15.6956 7.25169 15.3742C7.11523 15.0527 7.04366 14.7075 7.04109 14.3583C7.03853 14.0091 7.10502 13.6628 7.23674 13.3394C7.36846 13.016 7.56282 12.7218 7.80863 12.4737C8.05444 12.2257 8.34686 12.0287 8.66908 11.894C8.9913 11.7594 9.33695 11.6898 9.68616 11.6892C10.0367 11.6824 10.3852 11.7453 10.7112 11.8742C11.0373 12.0031 11.3346 12.1954 11.5858 12.44C11.837 12.6846 12.0372 12.9767 12.1747 13.2992C12.3122 13.6218 12.3843 13.9684 12.3869 14.319C12.3895 14.6696 12.3225 15.0173 12.1897 15.3418C12.0569 15.6663 11.8611 15.9613 11.6135 16.2095C11.3659 16.4578 11.0715 16.6545 10.7473 16.7881C10.4232 16.9218 10.0757 16.9898 9.72511 16.9882V16.9882Z" fill="#FE6143"/>
<path d="M12.148 20.6488C12.0451 20.5459 11.9699 20.4068 11.7975 20.404C11.7641 21.4388 12.7099 22.5348 13.6417 22.5375C14.6292 22.5403 15.4887 21.5584 15.4859 20.4319C15.1132 20.6238 14.8767 21.0188 14.4484 21.1356C13.5944 21.3693 12.81 21.3108 12.148 20.6488Z" fill="#070909"/>
<path d="M15.5888 19.4583C14.963 19.9172 14.3649 20.3095 13.5972 20.2955C12.8461 20.2816 12.2898 19.8143 11.625 19.3609C11.6973 19.7893 11.7474 20.0953 11.7975 20.404C11.9699 20.4096 12.045 20.5459 12.1479 20.6488C12.8072 21.3108 13.5944 21.3692 14.4483 21.1356C14.8767 21.0188 15.1131 20.6266 15.4859 20.4318C15.3858 20.112 15.7223 19.8254 15.5888 19.4583Z" fill="#FDFCFB"/>
<path d="M11.3969 7.49451C11.2995 7.48698 11.2016 7.49954 11.1093 7.5314C11.017 7.56327 10.9322 7.61376 10.8603 7.67975C10.7883 7.74574 10.7306 7.82581 10.6909 7.915C10.6511 8.0042 10.6301 8.10061 10.6292 8.19826C10.6375 8.76571 10.9657 9.01327 11.4024 9.00771C11.5981 9.00591 11.7853 8.92738 11.9236 8.789C12.062 8.65063 12.1406 8.46347 12.1424 8.2678C12.1507 7.83386 11.917 7.48338 11.3969 7.49451Z" fill="#FEA777"/>
<path d="M6.2731 18.6321C6.29876 18.4013 6.23506 18.1694 6.09508 17.984C5.83924 17.6432 5.61133 17.2823 5.41358 16.9048C4.22861 14.5738 4.04502 12.1593 4.93236 9.69478C5.48328 8.18803 6.43203 6.85863 7.67782 5.84779C8.14235 5.45837 8.83498 5.29147 9.06585 4.64057C9.07771 4.60866 9.08792 4.57617 9.09645 4.54321C8.88783 4.40691 8.71537 4.2428 8.41495 4.42638C6.66721 5.46679 5.28521 7.02372 4.45948 8.88255C3.78355 10.3874 3.6389 11.9507 3.71679 13.5585C3.81384 15.3327 4.44075 17.0371 5.5165 18.4513C5.70843 18.7128 5.94765 18.8769 6.2731 18.6405L6.2731 18.6321Z" fill="#FDFEFE"/>
<path d="M10.4871 4.03973C10.4927 4.03699 10.4983 4.03138 10.5038 4.02861C10.4983 3.57521 10.2563 3.22472 9.82511 3.32764C9.39674 3.43056 9.40509 3.85615 9.58311 4.22889L9.60815 4.2873C9.62859 4.30252 9.64996 4.31645 9.67212 4.32903C10.0365 4.54877 10.234 4.19829 10.4871 4.03974L10.4871 4.03973Z" fill="#FBFDFE"/>
<path d="M20.1562 14.3902C20.1658 14.0426 20.1057 13.6966 19.9793 13.3727C19.8529 13.0488 19.6629 12.7535 19.4204 12.5043C19.1779 12.2551 18.888 12.057 18.5676 11.9218C18.2473 11.7866 17.9031 11.7169 17.5554 11.717C17.2081 11.7113 16.8632 11.7742 16.5403 11.9021C16.2174 12.03 15.923 12.2205 15.6739 12.4625C15.4248 12.7045 15.226 12.9934 15.0888 13.3125C14.9517 13.6316 14.8789 13.9746 14.8747 14.3219C14.8705 14.6692 14.9349 15.0138 15.0643 15.3362C15.1936 15.6585 15.3854 15.9521 15.6285 16.2001C15.8717 16.4481 16.1614 16.6456 16.4811 16.7813C16.8008 16.9171 17.1441 16.9883 17.4914 16.991C17.8387 17.0012 18.1845 16.9413 18.5082 16.815C18.8319 16.6887 19.1269 16.4986 19.3756 16.2559C19.6242 16.0132 19.8215 15.7229 19.9556 15.4024C20.0897 15.0819 20.158 14.7376 20.1562 14.3902V14.3902ZM17.6222 14.6795C17.5155 14.69 17.4078 14.678 17.306 14.6441C17.2043 14.6102 17.1109 14.5553 17.0319 14.4828C16.9528 14.4103 16.89 14.322 16.8474 14.2236C16.8049 14.1252 16.7836 14.0189 16.7849 13.9117C16.778 13.8 16.7944 13.6881 16.833 13.583C16.8717 13.478 16.9318 13.3822 17.0095 13.3016C17.0872 13.221 17.1808 13.1575 17.2843 13.115C17.3879 13.0726 17.4992 13.0521 17.611 13.055C18.1006 13.0911 18.376 13.3777 18.4344 13.8895C18.3676 14.3457 18.134 14.6711 17.6222 14.6795Z" fill="#FEFEFE"/>
<path d="M9.68616 11.692C9.33694 11.6926 8.99129 11.7622 8.66907 11.8968C8.34686 12.0315 8.05444 12.2285 7.80862 12.4765C7.56281 12.7246 7.36845 13.0188 7.23673 13.3422C7.10501 13.6656 7.03852 14.0119 7.04109 14.3611C7.04365 14.7103 7.11522 15.0555 7.25169 15.377C7.38815 15.6984 7.58681 15.9897 7.83624 16.2341C8.08567 16.4785 8.38096 16.6712 8.70512 16.8011C9.02928 16.931 9.37591 16.9955 9.7251 16.991C10.0757 16.9926 10.4232 16.9246 10.7473 16.7909C11.0715 16.6573 11.3659 16.4606 11.6135 16.2123C11.8611 15.964 12.0569 15.6691 12.1897 15.3446C12.3225 15.0201 12.3895 14.6724 12.3869 14.3218C12.3843 13.9712 12.3122 13.6245 12.1747 13.302C12.0372 12.9795 11.837 12.6874 11.5858 12.4428C11.3346 12.1982 11.0373 12.0059 10.7112 11.877C10.3851 11.7481 10.0367 11.6852 9.68616 11.692V11.692ZM9.68893 14.6795C9.58198 14.6893 9.47416 14.6764 9.37254 14.6416C9.27092 14.6068 9.1778 14.551 9.09928 14.4777C9.02075 14.4044 8.95859 14.3154 8.91688 14.2164C8.87517 14.1174 8.85484 14.0108 8.85723 13.9034C8.85131 13.7915 8.86885 13.6796 8.90872 13.5749C8.94859 13.4702 9.00991 13.3749 9.08875 13.2953C9.16759 13.2157 9.2622 13.1534 9.36652 13.1125C9.47083 13.0716 9.58255 13.053 9.6945 13.0578C9.91286 13.0607 10.1211 13.1503 10.2734 13.3068C10.4257 13.4633 10.5097 13.6739 10.5067 13.8923C10.4455 14.3623 10.1896 14.6739 9.68893 14.6795Z" fill="#FEFEFE"/>
<path d="M17.6111 13.055C17.4991 13.0517 17.3876 13.0718 17.2838 13.1141C17.1801 13.1564 17.0863 13.2199 17.0085 13.3006C16.9307 13.3812 16.8706 13.4773 16.8321 13.5825C16.7936 13.6878 16.7776 13.7999 16.7849 13.9117C16.7834 14.019 16.8045 14.1254 16.847 14.2239C16.8895 14.3224 16.9523 14.4109 17.0314 14.4834C17.1105 14.5559 17.204 14.6108 17.3058 14.6446C17.4077 14.6784 17.5155 14.6903 17.6222 14.6794C18.1313 14.6711 18.3677 14.3456 18.4345 13.8895C18.376 13.3776 18.1007 13.0911 17.6111 13.055Z" fill="#090B0B"/>
<path d="M9.69459 13.0578C9.58264 13.053 9.47093 13.0716 9.36661 13.1125C9.26229 13.1534 9.16768 13.2157 9.08884 13.2953C9.01001 13.3749 8.94869 13.4702 8.90881 13.5749C8.86894 13.6796 8.8514 13.7915 8.85732 13.9034C8.85493 14.0108 8.87526 14.1174 8.91698 14.2164C8.95869 14.3154 9.02084 14.4044 9.09937 14.4777C9.17789 14.5509 9.27102 14.6068 9.37263 14.6416C9.47425 14.6763 9.58207 14.6893 9.68902 14.6794C10.1897 14.6739 10.4456 14.3623 10.5068 13.8922C10.4595 13.3776 10.1758 13.0967 9.69459 13.0578Z" fill="#090C0C"/>
</g>
<defs>
<clipPath id="clip0_126_12070">
<rect width="72" height="33.351" fill="white" transform="translate(0.5 0.324493)"/>
</clipPath>
</defs>
</svg>
