<svg width="131" height="25" viewBox="0 0 131 25" fill="none" xmlns="http://www.w3.org/2000/svg">
<g clip-path="url(#clip0_83_4099)">
<path d="M79.4704 4.67197V20.8589H84.0445V4.67197H79.4704ZM43.4814 4.64453V20.8452H48.0967V8.26601L51.6956 8.27973C52.877 8.27973 53.7011 8.5678 54.2643 9.17138C54.9923 9.93957 55.2808 11.1879 55.2808 13.4513V20.8452H59.7588V11.9012C59.7588 5.50875 55.6792 4.64453 51.6956 4.64453H43.4814ZM86.8467 4.67197V20.8589H94.2643C98.2204 20.8589 99.5116 20.2004 100.899 18.7326C101.888 17.7038 102.52 15.4267 102.52 12.9438C102.52 10.6666 101.984 8.63639 101.036 7.37436C99.3605 5.11093 96.9154 4.67197 93.2616 4.67197H86.8467ZM91.3797 8.1837H93.344C96.2011 8.1837 98.0418 9.45945 98.0418 12.7791C98.0418 16.0988 96.2011 17.3883 93.344 17.3883H91.3797V8.1837ZM72.877 4.67197L69.0583 17.498L65.4044 4.67197H60.4594L65.6792 20.8589H72.2726L77.5473 4.67197H72.877ZM104.663 20.8589H109.237V4.67197H104.663V20.8589ZM117.492 4.67197L111.105 20.8452H115.61L116.627 17.9782H124.182L125.143 20.8314H130.047L123.605 4.67197H117.492ZM120.459 7.62128L123.234 15.1935H117.602L120.459 7.62128Z" fill="white"/>
<path d="M13.9626 7.36052V5.13824C14.1824 5.12453 14.4022 5.11081 14.6219 5.11081C20.7208 4.91876 24.7181 10.351 24.7181 10.351C24.7181 10.351 20.4049 16.3319 15.7758 16.3319C15.1577 16.3319 14.5533 16.2359 13.9763 16.0438V9.29471C16.3527 9.58279 16.8335 10.6253 18.2483 12.9985L21.4214 10.3373C21.4214 10.3373 19.1 7.30564 15.1989 7.30564C14.7868 7.29193 14.3747 7.31936 13.9626 7.36052ZM13.9626 0.0078125V3.3275L14.6219 3.28635C23.0972 2.99828 28.6329 10.2275 28.6329 10.2275C28.6329 10.2275 22.2868 17.9369 15.6796 17.9369C15.1027 17.9369 14.5395 17.882 13.9763 17.786V19.8436C14.4434 19.8985 14.9241 19.9397 15.3912 19.9397C21.545 19.9397 25.9956 16.7983 30.3088 13.0945C31.023 13.6707 33.9489 15.0562 34.5533 15.6597C30.4598 19.0892 20.9131 21.8464 15.5011 21.8464C14.9791 21.8464 14.4846 21.819 13.9901 21.7641V24.6586H37.3692V0.0078125H13.9626V0.0078125ZM13.9626 16.0438V17.7997C8.27578 16.7846 6.69611 10.8723 6.69611 10.8723C6.69611 10.8723 9.42963 7.85435 13.9626 7.36052V9.281H13.9489C11.5725 8.99292 9.70435 11.2152 9.70435 11.2152C9.70435 11.2152 10.762 14.9601 13.9626 16.0438ZM3.86644 10.6253C3.86644 10.6253 7.23183 5.65952 13.9763 5.13824V3.3275C6.5038 3.93108 0.04776 10.2412 0.04776 10.2412C0.04776 10.2412 3.70161 20.8039 13.9626 21.7641V19.8436C6.43512 18.9108 3.86644 10.6253 3.86644 10.6253Z" fill="white"/>
</g>
<defs>
<clipPath id="clip0_83_4099">
<rect width="130" height="24.6667" fill="white" transform="translate(0.04776)"/>
</clipPath>
</defs>
</svg>
