<svg width="6" height="7" viewBox="0 0 6 7" fill="none" xmlns="http://www.w3.org/2000/svg">
<path fill-rule="evenodd" clip-rule="evenodd" d="M6 5.125C6 5.53921 5.66421 5.875 5.25 5.875C4.83579 5.875 4.5 5.53921 4.5 5.125V3.43566L1.28033 6.65533C0.987437 6.94822 0.512563 6.94822 0.21967 6.65533C-0.0732233 6.36244 -0.0732233 5.88756 0.21967 5.59467L3.43934 2.375H1.75C1.33579 2.375 1 2.03921 1 1.625C1 1.21079 1.33579 0.875 1.75 0.875H5.25H6V1.625V5.125Z" fill="black"/>
</svg>
