<svg width="41" height="39" viewBox="0 0 41 39" fill="none" xmlns="http://www.w3.org/2000/svg">
<path opacity="0.6" d="M19.039 1.2174L17.2683 10.4418C16.6925 13.4402 14.2461 15.7886 11.1201 16.3391L1.50319 18.0374C-0.189087 18.3361 -0.189087 20.6639 1.50319 20.9626L11.1201 22.6609C14.2461 23.2132 16.6944 25.5598 17.2683 28.5582L19.039 37.7826C19.3504 39.4058 21.7771 39.4058 22.0886 37.7826L23.8592 28.5582C24.4351 25.5598 26.8814 23.2114 30.0074 22.6609L39.6243 20.9626C41.3166 20.6639 41.3166 18.3361 39.6243 18.0374L30.0074 16.3391C26.8814 15.7868 24.4331 13.4402 23.8592 10.4418L22.0886 1.2174C21.7771 -0.4058 19.3504 -0.4058 19.039 1.2174Z" fill="url(#paint0_linear_289_7794)"/>
<defs>
<linearGradient id="paint0_linear_289_7794" x1="31.0609" y1="29.5697" x2="10.9427" y2="8.59547" gradientUnits="userSpaceOnUse">
<stop offset="0.2358" stop-color="#A686F2"/>
<stop offset="0.3904" stop-color="#A382F0" stop-opacity="0.9779"/>
<stop offset="0.5326" stop-color="#9A77EB" stop-opacity="0.9575"/>
<stop offset="0.67" stop-color="#8A65E3" stop-opacity="0.9379"/>
<stop offset="0.8036" stop-color="#744AD7" stop-opacity="0.9188"/>
<stop offset="0.9349" stop-color="#5829C8" stop-opacity="0.9"/>
</linearGradient>
</defs>
</svg>
