<?xml version="1.0" encoding="utf-8"?>
<!-- Generator: Adobe Illustrator 26.4.1, SVG Export Plug-In . SVG Version: 6.00 Build 0)  -->
<svg version="1.1" id="Layer_1" xmlns="http://www.w3.org/2000/svg" xmlns:xlink="http://www.w3.org/1999/xlink" x="0px" y="0px"
	 viewBox="0 0 416 531" enable-background="new 0 0 416 531" xml:space="preserve">
<g>
	<linearGradient id="SVGID_1_" gradientUnits="userSpaceOnUse" x1="71.5978" y1="126.9453" x2="337.4832" y2="396.5479">
		<stop  offset="0" style="stop-color:#B492FF;stop-opacity:0"/>
		<stop  offset="0.0707" style="stop-color:#B492FF;stop-opacity:0.0283"/>
		<stop  offset="0.5" style="stop-color:#B492FF;stop-opacity:0.2"/>
		<stop  offset="0.9293" style="stop-color:#B492FF;stop-opacity:0.0283"/>
		<stop  offset="1" style="stop-color:#B492FF;stop-opacity:0"/>
	</linearGradient>
	<path fill="url(#SVGID_1_)" d="M120.97,0.427c-8.086,14.403-12.699,31.006-12.699,48.666c0,26.364,10.283,50.372,27.05,68.223
		l45.271,44.926l130.223,129.386l41.918,41.593c38.418,37.606,62.292,90.014,62.292,147.893c0,16.876-2.03,33.286-5.857,49
		l-114.246-0.141c8.153-14.448,12.809-31.12,12.809-48.859c0-27.954-11.559-53.258-30.149-71.383l-43.813-43.464L103.749,237.11
		l-43.981-43.634C23.405,156.153,0.976,105.193,0.976,49.093c0-16.809,2.014-33.157,5.813-48.815L120.97,0.427z"/>
	
		<linearGradient id="SVGID_00000133500161356465497440000004847814882313489576_" gradientUnits="userSpaceOnUse" x1="150.9708" y1="320.2188" x2="67.5798" y2="466.5086">
		<stop  offset="0" style="stop-color:#241F35"/>
		<stop  offset="1" style="stop-color:#241F35;stop-opacity:0"/>
	</linearGradient>
	<path fill="url(#SVGID_00000133500161356465497440000004847814882313489576_)" d="M6.757,529.801
		c-3.779-15.619-5.782-31.924-5.782-48.688c0-55.894,22.265-106.685,58.391-143.971l66.267-65.798l77.256,74.426l-67.208,66.735
		c-16.98,17.89-27.411,42.053-27.411,68.608c0,17.679,4.624,34.298,12.726,48.712L6.757,529.801z"/>
	
		<linearGradient id="SVGID_00000182487732637206672630000004543640493475170493_" gradientUnits="userSpaceOnUse" x1="248.7773" y1="190.8729" x2="363.1089" y2="51.9106">
		<stop  offset="0" style="stop-color:#241F35"/>
		<stop  offset="1" style="stop-color:#241F35;stop-opacity:0"/>
	</linearGradient>
	<path fill="url(#SVGID_00000182487732637206672630000004543640493475170493_)" d="M409.217,0.299
		c3.795,15.651,5.807,31.992,5.807,48.794c0,57.906-23.897,110.336-62.348,147.945l-62.349,61.909l-76.309-75.363l63.55-63.1
		c18.596-18.126,30.16-43.434,30.16-71.392c0-17.693-4.631-34.324-12.744-48.745L409.217,0.299z"/>
</g>
<g>
	<path fill="#E6E3F1" d="M410.082,21.567h-2.818v-1.5h2.818V21.567z M401.627,21.567h-2.818v-1.5h2.818V21.567z M393.172,21.567
		h-2.818v-1.5h2.818V21.567z M384.717,21.567h-2.818v-1.5h2.818V21.567z M376.263,21.567h-2.818v-1.5h2.818V21.567z M367.808,21.567
		h-2.818v-1.5h2.818V21.567z M359.353,21.567h-2.818v-1.5h2.818V21.567z M350.898,21.567h-2.818v-1.5h2.818V21.567z M342.443,21.567
		h-2.818v-1.5h2.818V21.567z M333.989,21.567h-2.818v-1.5h2.818V21.567z M325.534,21.567h-2.818v-1.5h2.818V21.567z M317.079,21.567
		h-2.818v-1.5h2.818V21.567z M308.624,21.567h-2.818v-1.5h2.818V21.567z"/>
</g>
<g>
	<rect x="388.935" y="134.947" fill="#FF9C73" width="5.637" height="1.5"/>
	<rect x="377.662" y="134.947" fill="#FF9C73" width="5.636" height="1.5"/>
	<rect x="366.389" y="134.947" fill="#FF9C73" width="5.636" height="1.5"/>
	<rect x="355.115" y="134.947" fill="#FF9C73" width="5.637" height="1.5"/>
	<rect x="343.842" y="134.947" fill="#FF9C73" width="5.637" height="1.5"/>
	<rect x="332.569" y="134.947" fill="#FF9C73" width="5.636" height="1.5"/>
	<rect x="321.296" y="134.947" fill="#FF9C73" width="5.637" height="1.5"/>
	<rect x="310.023" y="134.947" fill="#FF9C73" width="5.637" height="1.5"/>
	<rect x="298.75" y="134.947" fill="#FF9C73" width="5.637" height="1.5"/>
	<rect x="287.477" y="134.947" fill="#FF9C73" width="5.636" height="1.5"/>
	<rect x="276.204" y="134.947" fill="#FF9C73" width="5.637" height="1.5"/>
	<rect x="264.931" y="134.947" fill="#FF9C73" width="5.637" height="1.5"/>
</g>
<g>
	<rect x="150.783" y="134.947" fill="#E6E3F1" width="2.818" height="1.5"/>
	<rect x="142.327" y="134.947" fill="#E6E3F1" width="2.819" height="1.5"/>
	<rect x="133.871" y="134.947" fill="#E6E3F1" width="2.818" height="1.5"/>
	<rect x="125.415" y="134.947" fill="#E6E3F1" width="2.819" height="1.5"/>
	<rect x="116.959" y="134.947" fill="#E6E3F1" width="2.818" height="1.5"/>
	<rect x="108.503" y="134.947" fill="#E6E3F1" width="2.819" height="1.5"/>
	<rect x="100.048" y="134.947" fill="#E6E3F1" width="2.818" height="1.5"/>
	<rect x="91.592" y="134.947" fill="#E6E3F1" width="2.819" height="1.5"/>
	<rect x="83.136" y="134.947" fill="#E6E3F1" width="2.818" height="1.5"/>
	<rect x="74.68" y="134.947" fill="#E6E3F1" width="2.819" height="1.5"/>
	<rect x="66.225" y="134.947" fill="#E6E3F1" width="2.818" height="1.5"/>
	<rect x="57.769" y="134.947" fill="#E6E3F1" width="2.819" height="1.5"/>
	<rect x="49.313" y="134.947" fill="#E6E3F1" width="2.818" height="1.5"/>
	<rect x="40.857" y="134.947" fill="#E6E3F1" width="2.819" height="1.5"/>
	<rect x="32.401" y="134.947" fill="#E6E3F1" width="2.818" height="1.5"/>
	<rect x="23.945" y="134.947" fill="#E6E3F1" width="2.819" height="1.5"/>
</g>
<g>
	<rect x="193.313" y="192.388" fill="#5F4A9F" width="9.767" height="1.5"/>
	<rect x="178.662" y="192.388" fill="#5F4A9F" width="9.767" height="1.5"/>
	<rect x="164.011" y="192.388" fill="#5F4A9F" width="9.767" height="1.5"/>
	<rect x="149.36" y="192.388" fill="#5F4A9F" width="9.767" height="1.5"/>
	<rect x="134.709" y="192.388" fill="#5F4A9F" width="9.767" height="1.5"/>
	<rect x="120.059" y="192.388" fill="#5F4A9F" width="9.767" height="1.5"/>
	<rect x="105.408" y="192.388" fill="#5F4A9F" width="9.767" height="1.5"/>
	<rect x="90.757" y="192.388" fill="#5F4A9F" width="9.767" height="1.5"/>
	<rect x="76.106" y="192.388" fill="#5F4A9F" width="9.767" height="1.5"/>
	<rect x="61.455" y="192.388" fill="#5F4A9F" width="9.767" height="1.5"/>
	<g>
		<polygon fill="#5F4A9F" points="212.726,193.888 207.964,193.888 207.964,192.388 211.294,192.388 		"/>
	</g>
</g>
<g>
	<rect x="388.666" y="393.428" fill="#E6E3F1" width="5.637" height="1.5"/>
	<rect x="377.393" y="393.428" fill="#E6E3F1" width="5.637" height="1.5"/>
	<rect x="366.12" y="393.428" fill="#E6E3F1" width="5.636" height="1.5"/>
	<rect x="354.847" y="393.428" fill="#E6E3F1" width="5.636" height="1.5"/>
	<rect x="343.573" y="393.428" fill="#E6E3F1" width="5.637" height="1.5"/>
	<rect x="332.3" y="393.428" fill="#E6E3F1" width="5.637" height="1.5"/>
	<rect x="321.027" y="393.428" fill="#E6E3F1" width="5.636" height="1.5"/>
	<rect x="309.754" y="393.428" fill="#E6E3F1" width="5.637" height="1.5"/>
	<rect x="298.481" y="393.428" fill="#E6E3F1" width="5.637" height="1.5"/>
	<rect x="287.208" y="393.428" fill="#E6E3F1" width="5.637" height="1.5"/>
	<rect x="275.935" y="393.428" fill="#E6E3F1" width="5.636" height="1.5"/>
	<rect x="264.662" y="393.428" fill="#E6E3F1" width="5.637" height="1.5"/>
</g>
<g>
	<rect x="90.166" y="450.868" fill="#FF9C73" width="22.546" height="1.5"/>
	<rect x="61.983" y="450.868" fill="#FF9C73" width="22.546" height="1.5"/>
	<rect x="33.801" y="450.868" fill="#FF9C73" width="22.546" height="1.5"/>
	<rect x="5.618" y="450.868" fill="#FF9C73" width="22.546" height="1.5"/>
</g>
<g>
	<rect x="406.728" y="479.588" fill="#B492FF" width="2.818" height="1.5"/>
	<rect x="398.272" y="479.588" fill="#B492FF" width="2.818" height="1.5"/>
	<rect x="389.818" y="479.588" fill="#B492FF" width="2.818" height="1.5"/>
	<rect x="381.363" y="479.588" fill="#B492FF" width="2.818" height="1.5"/>
	<rect x="372.908" y="479.588" fill="#B492FF" width="2.818" height="1.5"/>
	<rect x="364.454" y="479.588" fill="#B492FF" width="2.818" height="1.5"/>
	<rect x="355.999" y="479.588" fill="#B492FF" width="2.818" height="1.5"/>
	<rect x="347.544" y="479.588" fill="#B492FF" width="2.818" height="1.5"/>
	<rect x="339.089" y="479.588" fill="#B492FF" width="2.818" height="1.5"/>
	<rect x="330.634" y="479.588" fill="#B492FF" width="2.818" height="1.5"/>
	<rect x="322.179" y="479.588" fill="#B492FF" width="2.818" height="1.5"/>
	<rect x="313.725" y="479.588" fill="#B492FF" width="2.818" height="1.5"/>
</g>
<g>
	<path fill="#FF9C73" d="M112.584,20.067H35.816v1.5h76.329C112.29,21.066,112.432,20.565,112.584,20.067z"/>
	<path fill="#E6E3F1" d="M2.822,21.567h27.329v-1.5H3.024C2.954,20.566,2.889,21.067,2.822,21.567z"/>
</g>
<g>
	<g>
		<rect x="79.047" y="48.787" fill="#6FD9C8" width="14.583" height="1.5"/>
	</g>
	<g>
		<rect x="65.364" y="48.787" fill="#6FD9C8" width="8.921" height="1.5"/>
	</g>
	<g>
		<rect x="49.322" y="48.787" fill="#6FD9C8" width="11.28" height="1.5"/>
	</g>
	<g>
		<rect x="20.026" y="48.787" fill="#E6E3F1" width="24.535" height="1.5"/>
	</g>
	<path fill="#E6E3F1" d="M15.264,48.787H0.98c0,0.102-0.005,0.203-0.005,0.306c0,0.399,0.013,0.795,0.015,1.194h14.273V48.787z"/>
	<path fill="#6FD9C8" d="M98.392,48.787v1.5h9.893c-0.005-0.398-0.015-0.795-0.015-1.194c0-0.103,0.005-0.204,0.005-0.306H98.392z"
		/>
</g>
<path fill="#B492FF" d="M3.141,79.007H112.86c-0.157-0.499-0.316-0.998-0.466-1.5H2.935C3.003,78.007,3.069,78.508,3.141,79.007z"/>
<g>
	<rect x="388.128" y="48.787" fill="#B492FF" width="14.628" height="1.5"/>
	<rect x="368.624" y="48.787" fill="#B492FF" width="14.628" height="1.5"/>
	<rect x="349.12" y="48.787" fill="#B492FF" width="14.628" height="1.5"/>
	<rect x="329.616" y="48.787" fill="#B492FF" width="14.628" height="1.5"/>
	<rect x="310.112" y="48.787" fill="#B492FF" width="14.628" height="1.5"/>
	<path fill="#B492FF" d="M407.632,50.287h7.377c0.002-0.399,0.015-0.795,0.015-1.194c0-0.103-0.004-0.204-0.005-0.306h-7.388V50.287
		z"/>
</g>
<path fill="#E6E3F1" d="M303.6,77.507c-0.149,0.501-0.298,1.002-0.455,1.5h109.708c0.073-0.5,0.145-1,0.214-1.5H303.6z"/>
<g>
	<path fill="#FF9C73" d="M72.296,107.728h55.084c-0.362-0.497-0.722-0.997-1.075-1.5H72.296V107.728z"/>
	<path fill="#6FD9C8" d="M9.445,107.728h57.343v-1.5H9.006C9.15,106.729,9.297,107.228,9.445,107.728z"/>
</g>
<g>
	<g>
		<rect x="334.813" y="106.227" fill="#E6E3F1" width="25.462" height="1.5"/>
	</g>
	<path fill="#FF9C73" d="M329.182,107.728v-1.5h-39.49c-0.352,0.502-0.706,1.004-1.067,1.5H329.182z"/>
	<path fill="#6FD9C8" d="M365.913,106.228v1.5h40.645c0.148-0.5,0.302-0.998,0.447-1.5H365.913z"/>
</g>
<path fill="#FF9C73" d="M234.108,163.667l-1.51,1.5h146.733c0.338-0.498,0.672-0.999,1.006-1.5H234.108z"/>
<g>
	<rect x="141.734" y="163.667" fill="#FF9C73" width="23.382" height="1.5"/>
	<rect x="112.507" y="163.667" fill="#FF9C73" width="23.382" height="1.5"/>
	<rect x="83.28" y="163.667" fill="#FF9C73" width="23.381" height="1.5"/>
	<rect x="54.053" y="163.667" fill="#FF9C73" width="23.381" height="1.5"/>
	<polygon fill="#FF9C73" points="182.027,163.667 170.961,163.667 170.961,165.167 183.536,165.167 	"/>
	<path fill="#FF9C73" d="M36.673,165.167h11.534v-1.5H35.654C35.99,164.17,36.333,164.667,36.673,165.167z"/>
</g>
<g>
	<polygon fill="#E6E3F1" points="223.655,193.101 224.452,193.888 288.23,193.888 288.23,192.388 223.655,192.388 	"/>
	<path fill="#6FD9C8" d="M293.922,192.388v1.5h61.899c0.486-0.496,0.965-0.999,1.446-1.5H293.922z"/>
</g>
<g>
	<rect x="342.901" y="335.988" fill="#6FD9C8" width="5.636" height="1.5"/>
	<rect x="331.628" y="335.988" fill="#6FD9C8" width="5.637" height="1.5"/>
	<rect x="320.355" y="335.988" fill="#6FD9C8" width="5.637" height="1.5"/>
	<rect x="309.082" y="335.988" fill="#6FD9C8" width="5.636" height="1.5"/>
	<rect x="297.809" y="335.988" fill="#6FD9C8" width="5.636" height="1.5"/>
	<rect x="286.536" y="335.988" fill="#6FD9C8" width="5.637" height="1.5"/>
	<rect x="275.263" y="335.988" fill="#6FD9C8" width="5.637" height="1.5"/>
	<path fill="#6FD9C8" d="M355.492,335.988h-1.318v1.5h2.781C356.47,336.985,355.982,336.486,355.492,335.988z"/>
</g>
<path fill="#FF9C73" d="M379.111,364.708H232.195l1.514,1.5h146.407C379.781,365.708,379.45,365.205,379.111,364.708z"/>
<path fill="#E6E3F1" d="M406.458,422.148H288.381c0.365,0.496,0.724,0.997,1.079,1.5h117.451
	C406.766,423.146,406.606,422.649,406.458,422.148z"/>
<g>
	<rect x="371.993" y="450.868" fill="#FF9C73" width="22.546" height="1.5"/>
	<rect x="343.81" y="450.868" fill="#FF9C73" width="22.546" height="1.5"/>
	<rect x="315.627" y="450.868" fill="#FF9C73" width="22.546" height="1.5"/>
	<path fill="#FF9C73" d="M412.806,450.868h-12.63v1.5h12.844C412.95,451.868,412.879,451.367,412.806,450.868z"/>
	<path fill="#FF9C73" d="M309.991,450.868h-6.95c0.159,0.498,0.308,0.999,0.459,1.5h6.491V450.868z"/>
</g>
<path fill="#B492FF" d="M413.223,508.308H303.948c-0.142,0.5-0.277,1.003-0.427,1.5h109.5
	C413.09,509.309,413.156,508.809,413.223,508.308z"/>
<g>
	<rect x="82.651" y="508.308" fill="#B492FF" width="19.058" height="1.5"/>
	<rect x="58.829" y="508.308" fill="#B492FF" width="19.058" height="1.5"/>
	<rect x="35.007" y="508.308" fill="#B492FF" width="19.058" height="1.5"/>
	<rect x="11.185" y="508.308" fill="#B492FF" width="19.058" height="1.5"/>
	<path fill="#B492FF" d="M2.98,509.808h3.441v-1.5H2.777C2.843,508.809,2.91,509.309,2.98,509.808z"/>
	<path fill="#B492FF" d="M112.052,508.308h-5.579v1.5h6.006C112.33,509.311,112.194,508.808,112.052,508.308z"/>
</g>
<path fill="#6FD9C8" d="M0.995,479.588c-0.004,0.501-0.019,0.999-0.019,1.5h107.295c0-0.501,0.011-1,0.018-1.5H0.995z"/>
<g>
	<rect x="118.349" y="422.148" fill="#FF9C73" width="2.818" height="1.5"/>
	<rect x="109.894" y="422.148" fill="#FF9C73" width="2.818" height="1.5"/>
	<rect x="101.439" y="422.148" fill="#FF9C73" width="2.818" height="1.5"/>
	<rect x="92.984" y="422.148" fill="#FF9C73" width="2.818" height="1.5"/>
	<rect x="84.529" y="422.148" fill="#FF9C73" width="2.818" height="1.5"/>
	<rect x="76.075" y="422.148" fill="#FF9C73" width="2.818" height="1.5"/>
	<rect x="67.62" y="422.148" fill="#FF9C73" width="2.818" height="1.5"/>
	<rect x="59.165" y="422.148" fill="#FF9C73" width="2.818" height="1.5"/>
	<rect x="50.71" y="422.148" fill="#FF9C73" width="2.818" height="1.5"/>
	<rect x="42.255" y="422.148" fill="#FF9C73" width="2.818" height="1.5"/>
	<rect x="33.801" y="422.148" fill="#FF9C73" width="2.818" height="1.5"/>
	<rect x="25.346" y="422.148" fill="#FF9C73" width="2.818" height="1.5"/>
	<rect x="16.891" y="422.148" fill="#FF9C73" width="2.818" height="1.5"/>
	<path fill="#FF9C73" d="M11.254,422.148H9.54c-0.148,0.499-0.293,1-0.438,1.5h2.152V422.148z"/>
</g>
<g>
	<rect x="82.275" y="393.428" fill="#6FD9C8" width="56.365" height="1.5"/>
	<rect x="20.273" y="393.428" fill="#6FD9C8" width="56.365" height="1.5"/>
	<polygon fill="#6FD9C8" points="144.277,393.428 144.277,394.928 153.383,394.928 154.894,393.428 	"/>
</g>
<g>
	<polygon fill="#6FD9C8" points="155.267,364.708 155.267,366.208 182.307,366.208 183.817,364.708 	"/>
	<g>
		<rect x="122.528" y="364.708" fill="#E6E3F1" width="27.102" height="1.5"/>
	</g>
	<g>
		<rect x="63.117" y="364.708" fill="#E6E3F1" width="20.586" height="1.5"/>
	</g>
	<g>
		<rect x="89.355" y="364.708" fill="#FF9C73" width="27.914" height="1.5"/>
	</g>
	<path fill="#FF9C73" d="M57.48,366.208v-1.5H36.894c-0.34,0.498-0.678,0.999-1.014,1.5H57.48z"/>
</g>
<g>
	<polygon fill="#FF9C73" points="121.08,280.048 121.08,278.548 118.409,278.548 116.898,280.048 	"/>
	<polygon fill="#FF9C73" points="133.112,278.548 125.621,278.548 125.621,280.048 133.954,280.048 133.954,279.359 	"/>
</g>
<g>
	<rect x="149.517" y="307.268" fill="#6FD9C8" width="5.641" height="1.5"/>
	<rect x="138.234" y="307.268" fill="#6FD9C8" width="5.641" height="1.5"/>
	<rect x="126.952" y="307.268" fill="#6FD9C8" width="5.641" height="1.5"/>
	<rect x="115.669" y="307.268" fill="#6FD9C8" width="5.641" height="1.5"/>
	<rect x="104.386" y="307.268" fill="#6FD9C8" width="5.642" height="1.5"/>
	<rect x="93.104" y="307.268" fill="#6FD9C8" width="5.642" height="1.5"/>
	<polygon fill="#6FD9C8" points="163.618,307.937 162.924,307.268 160.8,307.268 160.8,308.768 163.618,308.768 	"/>
</g>
<path fill="#E6E3F1" d="M193.74,336.956l-1.005-0.968H60.529l-1.163,1.154c-0.111,0.114-0.218,0.232-0.328,0.346H193.74V336.956z"/>
<polygon fill="#5F4A9F" points="299.512,249.828 281.094,249.828 282.613,251.328 298.002,251.328 "/>
<g>
	<rect x="300.966" y="221.108" fill="#B492FF" width="19.048" height="1.5"/>
	<rect x="277.157" y="221.108" fill="#B492FF" width="19.048" height="1.5"/>
	<polygon fill="#B492FF" points="324.776,222.607 326.951,222.607 328.46,221.107 324.776,221.107 	"/>
	<polygon fill="#B492FF" points="253.532,222.607 272.395,222.607 272.395,221.107 253.347,221.107 253.347,222.424 	"/>
</g>
<g>
	<g>
		<rect x="231.402" y="249.828" fill="#FF9C73" width="14.469" height="1.5"/>
	</g>
	<g>
		<rect x="197.147" y="249.828" fill="#6FD9C8" width="29.492" height="1.5"/>
	</g>
	<g>
		<rect x="162.175" y="249.828" fill="#FF9C73" width="19.126" height="1.5"/>
	</g>
	<g>
		<rect x="140.406" y="249.828" fill="#E6E3F1" width="17.007" height="1.5"/>
	</g>
	<g>
		<rect x="186.993" y="249.828" fill="#E6E3F1" width="4.607" height="1.5"/>
	</g>
	<polygon fill="#6FD9C8" points="116.921,250.194 118.062,251.328 135.644,251.328 135.644,249.828 116.921,249.828 	"/>
	<polygon fill="#E6E3F1" points="268.744,249.828 250.633,249.828 250.633,251.328 270.254,251.328 	"/>
</g>
<polygon fill="#6FD9C8" points="240.316,221.582 239.838,221.107 87.62,221.107 89.132,222.607 240.316,222.607 "/>
<g>
	<rect x="288.298" y="278.548" fill="#B492FF" width="2.821" height="1.5"/>
	<rect x="279.837" y="278.548" fill="#B492FF" width="2.82" height="1.5"/>
	<rect x="271.375" y="278.548" fill="#B492FF" width="2.82" height="1.5"/>
	<rect x="262.913" y="278.548" fill="#B492FF" width="2.821" height="1.5"/>
	<rect x="254.451" y="278.548" fill="#B492FF" width="2.821" height="1.5"/>
	<rect x="245.99" y="278.548" fill="#B492FF" width="2.82" height="1.5"/>
	<rect x="237.528" y="278.548" fill="#B492FF" width="2.82" height="1.5"/>
	<rect x="229.066" y="278.548" fill="#B492FF" width="2.821" height="1.5"/>
	<rect x="220.604" y="278.548" fill="#B492FF" width="2.821" height="1.5"/>
	<rect x="212.142" y="278.548" fill="#B492FF" width="2.821" height="1.5"/>
	<rect x="203.681" y="278.548" fill="#B492FF" width="2.82" height="1.5"/>
	<rect x="195.219" y="278.548" fill="#B492FF" width="2.82" height="1.5"/>
	<rect x="186.757" y="278.548" fill="#B492FF" width="2.821" height="1.5"/>
	<rect x="178.295" y="278.548" fill="#B492FF" width="2.821" height="1.5"/>
	<rect x="169.833" y="278.548" fill="#B492FF" width="2.82" height="1.5"/>
	<rect x="161.372" y="278.548" fill="#B492FF" width="2.82" height="1.5"/>
	<rect x="152.91" y="278.548" fill="#B492FF" width="2.821" height="1.5"/>
	<polygon fill="#B492FF" points="297.65,278.548 296.76,278.548 296.76,280.048 299.16,280.048 	"/>
	<polygon fill="#B492FF" points="146.974,280.048 147.269,280.048 147.269,278.548 145.859,278.548 145.859,278.94 	"/>
</g>
<polygon fill="#FF9C73" points="204.798,337.488 269.699,337.488 269.699,335.988 203.288,335.988 "/>
<polygon fill="#E6E3F1" points="175.16,307.268 175.16,308.047 175.885,308.768 328.088,308.768 326.577,307.268 "/>
<g>
	<g>
		
			<rect x="288.636" y="254.089" transform="matrix(0.7097 -0.7045 0.7045 0.7097 -94.0507 281.4506)" fill="#B492FF" width="11.659" height="1.5"/>
	</g>
	<g>
		<path fill="#B492FF" d="M33.517,371.191l-1.268-0.802c7.651-12.103,16.594-23.464,26.579-33.77l66.277-65.808l1.057,1.064
			l-66.267,65.798C49.992,347.895,41.113,359.175,33.517,371.191z"/>
	</g>
	<g>
		<path fill="#B492FF" d="M6.975,434.765l-1.462-0.337c4.358-18.909,11.371-37.118,20.843-54.12l1.311,0.73
			C18.263,397.917,11.301,415.994,6.975,434.765z"/>
	</g>
	<g>
		<path fill="#B492FF" d="M409.955,530.046l-1.458-0.353c2.652-10.946,4.412-22.215,5.231-33.493l1.496,0.109
			C414.399,507.669,412.626,519.02,409.955,530.046z"/>
	</g>
	<g>
		<path fill="#B492FF" d="M415.734,485.23l-1.5-0.03c0.027-1.36,0.04-2.722,0.04-4.088c0-39.866-11.443-78.579-33.093-111.954
			l1.259-0.816c21.808,33.619,33.334,72.614,33.334,112.77C415.774,482.488,415.761,483.861,415.734,485.23z"/>
	</g>
	<g>
		<path fill="#B492FF" d="M374.584,359.587c-3.368-4.604-6.969-9.123-10.705-13.431l1.134-0.983
			c3.762,4.339,7.389,8.891,10.782,13.528L374.584,359.587z"/>
	</g>
	<g>
		
			<rect x="213.092" y="173.031" transform="matrix(0.7048 -0.7094 0.7094 0.7048 -75.406 209.338)" fill="#B492FF" width="1.5" height="44.494"/>
	</g>
	<g>
		<path fill="#B492FF" d="M189.314,171.965l-54.521-54.117c-4.459-4.747-8.458-9.921-11.904-15.398l1.27-0.799
			c3.395,5.396,7.334,10.493,11.709,15.151l54.504,54.099L189.314,171.965z"/>
	</g>
	<g>
		<path fill="#B492FF" d="M117.387,92.497c-6.547-13.613-9.867-28.216-9.867-43.405c0-7.556,0.847-15.093,2.517-22.399l1.462,0.334
			c-1.645,7.197-2.479,14.621-2.479,22.065c0,14.962,3.27,29.346,9.718,42.755L117.387,92.497z"/>
	</g>
	<g>
		<path fill="#B492FF" d="M114.622,16.248l-1.415-0.499c1.906-5.404,4.298-10.682,7.11-15.69l1.308,0.734
			C118.855,5.726,116.499,10.926,114.622,16.248z"/>
	</g>
	<g>
		<path fill="#B492FF" d="M308.121,57.619l-1.495-0.126c0.235-2.773,0.354-5.6,0.354-8.4c0-16.894-4.351-33.582-12.582-48.259
			l1.309-0.734c8.356,14.901,12.773,31.842,12.773,48.993C308.479,51.935,308.359,54.803,308.121,57.619z"/>
	</g>
	<g>
		<path fill="#B492FF" d="M278.092,121.022l-1.047-1.074c14.376-14.012,24.055-31.743,27.989-51.275l1.471,0.296
			C302.51,88.798,292.686,106.798,278.092,121.022z"/>
	</g>
	<g>
		<path fill="#B492FF" d="M120.343,530.192c-1.125-2.002-2.194-4.066-3.176-6.134l1.355-0.643c0.967,2.037,2.02,4.07,3.128,6.043
			L120.343,530.192z"/>
	</g>
	<g>
		<path fill="#B492FF" d="M112.917,513.622c-1.589-4.636-2.846-9.432-3.735-14.255l1.476-0.272c0.875,4.75,2.113,9.474,3.678,14.04
			L112.917,513.622z"/>
	</g>
	<g>
		<path fill="#B492FF" d="M107.763,488.121c-0.161-2.319-0.242-4.677-0.242-7.009c0-25.812,9.808-50.361,27.617-69.124l2.832-2.812
			l1.057,1.064l-2.816,2.796c-17.528,18.468-27.189,42.65-27.189,68.076c0,2.297,0.08,4.62,0.238,6.905L107.763,488.121z"/>
	</g>
	<g>
		<path fill="#B492FF" d="M295.623,530.253l-1.307-0.736c8.285-14.715,12.664-31.453,12.664-48.405
			c0-26.872-10.627-52.032-29.923-70.846l-1.875-1.86l1.057-1.065l1.871,1.856c19.583,19.094,30.371,44.636,30.371,71.916
			C308.479,498.322,304.034,515.314,295.623,530.253z"/>
	</g>
	<g>
		
			<rect x="258.48" y="379.986" transform="matrix(0.7043 -0.7099 0.7099 0.7043 -201.294 299.8193)" fill="#B492FF" width="1.5" height="23.079"/>
	</g>
	<g>
		
			<rect x="215.85" y="312.26" transform="matrix(0.7047 -0.7095 0.7095 0.7047 -183.8056 256.8175)" fill="#B492FF" width="1.5" height="73.892"/>
	</g>
	<g>
		<path fill="#B492FF" d="M67.302,202.007l-8.062-7.999C26.951,160.867,6.432,117.452,1.453,71.753l1.491-0.162
			c4.943,45.368,25.314,88.468,57.361,121.362l8.054,7.99L67.302,202.007z"/>
	</g>
	<g>
		<path fill="#B492FF" d="M0.487,59.587c-0.174-3.47-0.262-7.001-0.262-10.494c0-16.482,1.946-32.897,5.785-48.789l1.458,0.352
			C3.658,16.432,1.726,32.729,1.726,49.093c0,3.468,0.087,6.974,0.26,10.419L0.487,59.587z"/>
	</g>
	<g>
		<path fill="#B492FF" d="M307.039,243.411l-1.057-1.064l46.166-45.841c14.179-13.869,26.266-29.64,35.928-46.88l1.309,0.733
			c-9.732,17.365-21.907,33.25-36.184,47.215L307.039,243.411z"/>
	</g>
	<g>
		<path fill="#B492FF" d="M394.692,140.247l-1.347-0.66c7.537-15.373,13.125-31.654,16.61-48.39l1.469,0.306
			C407.914,108.361,402.285,124.761,394.692,140.247z"/>
	</g>
</g>
</svg>
