<svg width="163" height="48" viewBox="0 0 163 48" fill="none" xmlns="http://www.w3.org/2000/svg">
<g clip-path="url(#clip0_350_9584)">
<path d="M58.278 6.40015H63.8102C68.9085 6.40015 71.8915 9.05777 71.8915 12.773V12.8001C71.8915 16.5154 68.8813 19.2815 63.7288 19.2815H58.278V6.40015V6.40015ZM63.8644 16.1086C66.2508 16.1086 67.8237 14.9425 67.8237 12.8544V12.8273C67.8237 10.7662 66.2508 9.57302 63.8644 9.57302H62.2644V16.1357H63.8644V16.1086Z" fill="black"/>
<path d="M76.3118 13.6408V6.40017H80.3253V13.5595C80.3253 15.4307 81.3558 16.2985 82.9558 16.2985C84.5558 16.2985 85.5863 15.4578 85.5863 13.6408V6.37305H89.627V13.5052C89.627 17.6544 86.9965 19.4985 82.9287 19.4985C78.8609 19.5256 76.3118 17.6544 76.3118 13.6408Z" fill="black"/>
<path d="M94.5626 6.40015H98.2508L104.136 13.2069V6.40015H108.068V19.2815H104.597L98.4677 12.2035V19.2815H94.5626V6.40015Z" fill="black"/>
<path d="M112.678 12.8814V12.8543C112.678 9.11193 115.878 6.15601 120.217 6.15601C123.146 6.15601 125.017 7.26787 126.292 8.84075L123.308 10.9289C122.495 10.0068 121.546 9.41024 120.19 9.41024C118.183 9.41024 116.773 10.9289 116.773 12.8272V12.8543C116.773 14.7797 118.183 16.2984 120.19 16.2984C121.681 16.2984 122.549 15.6746 123.417 14.7255L126.4 16.6509C125.044 18.3323 123.227 19.5526 120.054 19.5526C115.986 19.5526 112.678 16.7323 112.678 12.8814Z" fill="black"/>
<path d="M135.485 6.3186H139.308L145.41 19.3084H141.153L140.122 17.0034H134.617L133.586 19.3084H129.41L135.485 6.3186ZM138.956 14.2101L137.356 10.5491L135.756 14.2101H138.956Z" fill="black"/>
<path d="M149.37 6.40015H153.058L158.942 13.2069V6.40015H162.875V19.2815H159.403L153.302 12.2035V19.2815H149.37V6.40015Z" fill="black"/>
<path d="M62.183 25.5459H64.1084L68.1491 34.1154H65.9796L65.1118 32.2171H61.1254L60.2576 34.1154H58.1423L62.183 25.5459ZM64.3796 30.5357L63.1322 27.7696L61.8847 30.5357H64.3796Z" fill="black"/>
<path d="M72.7593 25.6001H75.0644L77.5322 31.5933L80 25.6001H82.2237L78.4271 34.1696H76.583L72.7593 25.6001Z" fill="black"/>
<path d="M91.1999 25.6001H89.1118V34.0882H91.1999V25.6001Z" fill="black"/>
<path d="M102.102 25.5459H104.027L108.068 34.1154H105.898L105.031 32.2171H101.044L100.176 34.1154H98.061L102.102 25.5459ZM104.298 30.5357L103.051 27.7696L101.803 30.5357H104.298Z" fill="black"/>
<path d="M115.824 27.3357H112.949V25.6001H120.786V27.3357H117.912V34.1153H115.824V27.3357Z" fill="black"/>
<path d="M129.871 25.6001H127.783V34.0882H129.871V25.6001Z" fill="black"/>
<path d="M137.139 29.8847C137.139 27.444 139.254 25.4644 142.156 25.4644C145.085 25.4644 147.173 27.4169 147.173 29.8305V29.8576C147.173 32.2711 145.058 34.2508 142.156 34.2508C139.227 34.2508 137.139 32.2983 137.139 29.8847ZM144.976 29.8847C144.976 28.3932 143.783 27.1999 142.129 27.1999C140.447 27.1999 139.308 28.3932 139.308 29.8576V29.8847C139.308 31.3491 140.502 32.5423 142.156 32.5423C143.837 32.5152 144.976 31.3491 144.976 29.8847Z" fill="black"/>
<path d="M154.332 25.6001H156.258L160.678 30.834V25.6001H162.712V34.1153H160.949L156.366 28.6916V34.1153H154.332V25.6001Z" fill="black"/>
<path d="M47.6203 0.0812988H0.16272V47.5118H47.6203V0.0812988Z" fill="white"/>
<path d="M36.4745 19.01C35.5796 19.01 34.8474 19.7693 34.8474 20.6642C34.8474 21.5863 35.5796 22.3185 36.4745 22.3185C37.3694 22.3185 38.1016 21.5863 38.1016 20.6642C38.1016 19.7422 37.3694 19.01 36.4745 19.01Z" fill="black"/>
<path d="M25.7899 29.1253C25.7899 28.0948 24.9763 27.2813 23.9458 27.2542V30.9965C24.9763 30.9694 25.7899 30.1558 25.7899 29.1253Z" fill="#231815"/>
<path d="M30.6441 30.8338H47.6203V0.0812988H0.16272V30.8338H10.6034V34.0881H0.16272V47.5118H47.6203V34.1423H24C28.7187 34.0067 30.6441 30.5355 30.6441 30.8338ZM36.4746 24.1355C34.5492 24.1355 32.9763 22.5627 32.9763 20.6372C32.9763 18.7118 34.522 17.166 36.4746 17.166C38.4 17.166 39.9458 18.7118 39.9458 20.6372C39.9729 22.5898 38.4 24.1355 36.4746 24.1355ZM25.9525 6.37282H39.9186V7.59316H25.9525V6.37282V6.37282ZM10.5763 23.8643C8.73221 23.8643 7.24069 22.3728 7.24069 20.5288C7.24069 18.6847 8.73221 17.1932 10.5763 17.1932C12.4203 17.1932 13.9119 18.6847 13.9119 20.5288C13.939 22.3457 12.4475 23.8643 10.5763 23.8643ZM14.7254 24.922C14.7254 20.2847 17.6542 16.4881 22.0746 15.8101V7.62028H7.64747V6.39994H22.1017V4.71858H23.9729V15.7016V15.8643V17.844C28.1763 17.844 30.4814 20.8542 30.7797 24.1084H23.9729V26.1966C25.5458 26.2237 26.8475 27.4982 26.8475 29.1254C26.8475 30.7525 25.5458 32.0271 23.9729 32.0542V34.1423C18.8746 34.1423 14.7254 29.9932 14.7254 24.922Z" fill="black"/>
<path d="M17.139 24.1084H23.9458V17.844C19.7424 17.844 17.4373 20.8542 17.139 24.1084Z" fill="black"/>
<path d="M21.6135 40.8135C21.6135 41.4372 22.1288 41.9525 22.7525 41.9525C23.3762 41.9525 23.8915 41.4372 23.8915 40.8135V38.1287C23.8915 37.505 23.3762 36.9897 22.7525 36.9897C22.1288 36.9897 21.6135 37.505 21.6135 38.1287V40.8135Z" fill="white"/>
<path d="M33.6543 40.8135C33.6543 41.4372 34.1696 41.9525 34.7933 41.9525C35.417 41.9525 35.9323 41.4372 35.9323 40.8135V38.1287C35.9323 37.505 35.417 36.9897 34.7933 36.9897C34.1696 36.9897 33.6543 37.505 33.6543 38.1287V40.8135Z" fill="white"/>
<path d="M36.9355 40.8135C36.9355 41.4372 37.4508 41.9525 38.0745 41.9525C38.6983 41.9525 39.2135 41.4372 39.2135 40.8135V38.1287C39.2135 37.505 38.6983 36.9897 38.0745 36.9897C37.4508 36.9897 36.9355 37.505 36.9355 38.1287V40.8135Z" fill="white"/>
<path d="M48.8407 46.5083C48.8407 45.749 49.4373 45.1252 50.2237 45.1252C50.9831 45.1252 51.6068 45.749 51.6068 46.4812C51.6068 47.2134 51.0102 47.8642 50.2237 47.8642C49.4373 47.8642 48.8407 47.2405 48.8407 46.5083ZM51.417 46.5083C51.417 45.8303 50.9017 45.288 50.1966 45.288C49.4915 45.288 48.9763 45.8303 48.9763 46.5083C48.9763 47.1863 49.4915 47.7286 50.1966 47.7286C50.9017 47.7286 51.417 47.1591 51.417 46.5083ZM49.6543 45.7219H50.3051C50.4949 45.7219 50.6576 45.7761 50.7661 45.8846C50.8475 45.9659 50.9017 46.0744 50.9017 46.21C50.9017 46.4541 50.7661 46.5897 50.5763 46.671L50.9288 47.1863H50.5492L50.2237 46.7252H49.9797V47.1863H49.6543V45.7219V45.7219ZM50.278 46.4541C50.4407 46.4541 50.5221 46.3727 50.5221 46.2371C50.5221 46.1015 50.4136 46.0202 50.278 46.0202H49.9526V46.4541H50.278Z" fill="#231815"/>
</g>
<defs>
<clipPath id="clip0_350_9584">
<rect width="162.983" height="48" fill="white"/>
</clipPath>
</defs>
</svg>
